vending_complex.vcd
$date
	Sun Feb 22 08:08:43 2026
$end
$version
	Icarus Verilog
$end
$timescale
	1ps
$end
$scope module vending_complex_tb $end
$var wire 1 ! dispense $end
$var wire 5 " change [4:0] $end
$var reg 1 # clk $end
$var reg 1 $ dime $end
$var reg 1 % nickel $end
$var reg 1 & quarter $end
$var reg 1 ' rst $end
$var integer 32 ( errors [31:0] $end
$scope module uut $end
$var wire 1 # clk $end
$var wire 1 $ dime $end
$var wire 1 % nickel $end
$var wire 1 & quarter $end
$var wire 1 ' rst $end
$var reg 5 ) change [4:0] $end
$var reg 1 ! dispense $end
$var reg 6 * total [5:0] $end
$upscope $end
$upscope $end
$enddefinitions $end
$comment Show the parameter values. $end
$dumpall
$end
#0
$dumpvars
b0 *
b0 )
b0 (
1'
0&
0%
0$
0#
b0 "
0!
$end
#5000
1#
#6000
1&
0'
#10000
0#
#15000
b11001 *
1#
#16000
0&
#20000
0#
#25000
b0 *
1!
1#
#26000
1$
#30000
0#
#35000
b1010 *
0!
1#
#36000
1$
#40000
0#
#45000
b10100 *
1#
#46000
1%
0$
#50000
0#
#55000
b11001 *
1#
#56000
0%
#60000
0#
#65000
b0 *
1!
1#
#66000
1$
1%
#70000
0#
#75000
b1010 *
0!
1#
#76000
1&
0$
0%
#80000
0#
#85000
b100011 *
1#
#86000
0&
#90000
0#
#95000
b0 *
b1010 "
b1010 )
1!
1#
